Data Visualization Analysis
…
This reshapes the iris dataset to create a long-format dataset suitable for grouping by Sizes;

df <- iris: Creates a temporary dataset to be modified without affecting the original dataset iris

pivot_longer: A function in R is used to transform data from a wide format to a long format. It collapses multiple columns into two: one for the column names and one for their corresponding values.

%>%: It takes the result of the expression on the left and passes it as the first argument to the function on the right.

After pivot_longer

iris_long

# A tibble: 300 × 5
   Petal.Length Petal.Width Species Sizes        Count
          <dbl>       <dbl> <fct>   <chr>        <dbl>
 1          1.4         0.2 setosa  Sepal.Length   5.1
 2          1.4         0.2 setosa  Sepal.Width    3.5
 3          1.4         0.2 setosa  Sepal.Length   4.9
 4          1.4         0.2 setosa  Sepal.Width    3  
 5          1.3         0.2 setosa  Sepal.Length   4.7
 6          1.3         0.2 setosa  Sepal.Width    3.2
 7          1.5         0.2 setosa  Sepal.Length   4.6
 8          1.5         0.2 setosa  Sepal.Width    3.1
 9          1.4         0.2 setosa  Sepal.Length   5  
10          1.4         0.2 setosa  Sepal.Width    3.6
# ℹ 290 more rows
…
